…
    > backbone_cell_graph <- tibble::tibble(
    +   from = letters[1:10],
    +   to = letters[2:11],
    +   length = 1,
    +   directed = TRUE
    + )
    > leaves_cell_graph <- tibble::tibble(
    +   from = letters[12:26],
    +   to = sample(letters[1:11], 15, replace = TRUE),
    +   length = 1,
    +   directed = TRUE
    + )
    > cell_graph <- bind_rows(backbone_cell_graph, leaves_cell_graph)
    > cell_graph
    # A tibble: 25 × 4
       from  to    length directed
       <chr> <chr>  <dbl> <lgl>   
     1 a     b          1 TRUE    
     2 b     c          1 TRUE    
     3 c     d          1 TRUE    
     4 d     e          1 TRUE    
     5 e     f          1 TRUE    
     6 f     g          1 TRUE    
     7 g     h          1 TRUE    
     8 h     i          1 TRUE    
     9 i     j          1 TRUE    
    10 j     k          1 TRUE    
    # ℹ 15 more rows
…
